commit 000ac0ee257497ca2efd820f15858b9204d6875a
Author: jessehuang <jesse17huang@gmail.com>
Date:   Mon Oct 19 17:17:39 2020 -0500

    prefinal push

commit 4f81114bfd90842d999b7b621285a35e8fc70e89
Author: jessehuang <jesse17huang@gmail.com>
Date:   Mon Oct 19 17:10:06 2020 -0500

    unite tests

commit 796122a0874aa3840c43b6fa95070256ae327078
Author: jessehuang <jesse17huang@gmail.com>
Date:   Mon Oct 19 15:17:05 2020 -0500

    valid

commit 194f78a9b75656aeb3f4332b1f15d781a7b35d41
Merge: 4abc761 ec875d2
Author: jessehuang <jesse17huang@gmail.com>
Date:   Mon Oct 19 15:00:39 2020 -0500

    hack pass

commit 4abc7612525d70b8a6f62c16963675c34761114b
Author: jessehuang <jesse17huang@gmail.com>
Date:   Mon Oct 19 14:03:57 2020 -0500

    ah

commit ec875d20b860ce9237ead0fbf81c75fdef6ef1bd
Author: Nathan Gates <nathangates117@gmail.com>
Date:   Mon Oct 19 13:08:01 2020 -0500

    reverting changes because none got printed xd

commit 0c372b633f13b237d2c18d4562df989b5029bb0e
Author: Nathan Gates <nathangates117@gmail.com>
Date:   Mon Oct 19 13:04:36 2020 -0500

    xd

commit 91b60df61376ab480d346a2a580a8bf58f41ac90
Author: Nathan Gates <nathangates117@gmail.com>
Date:   Mon Oct 19 13:02:15 2020 -0500

    more pipeline

commit 0cbe2c9d7ad3fbaf37f669fb7bee7ef88b18ab1f
Author: Nathan Gates <nathangates117@gmail.com>
Date:   Mon Oct 19 12:56:00 2020 -0500

    Want to see what is seg faulting in pipeline.

commit 1f6bac563052526ccd04400b269f6991739b7d8c
Author: Nathan Gates <nathangates117@gmail.com>
Date:   Mon Oct 19 12:41:54 2020 -0500

    Fixed a syntax error in previous commit.

commit 5c0775e58d4fd3ef69651f77fa9f4a0183b1b1ee
Author: Nathan Gates <nathangates117@gmail.com>
Date:   Mon Oct 19 12:39:24 2020 -0500

    Updated the deallocate pointer finder helper method for the input. Hopefully, Closes #8

commit f192088c23499b4c2653d66c5e8b3b92c0ee8118
Author: jessehuang <jesse17huang@gmail.com>
Date:   Mon Oct 19 07:14:03 2020 -0500

    haha negative sign

commit b3b5abcfcaef82097e1cdbc6b23aad61482f26b7
Author: jessehuang <jesse17huang@gmail.com>
Date:   Mon Oct 19 06:55:56 2020 -0500

    some of the repl

commit 289fdc3c0e1a518abce55c43ad80342cd45defb2
Author: jessehuang <jesse17huang@gmail.com>
Date:   Mon Oct 19 06:22:02 2020 -0500

    deallo works too

commit 9fa3fcc67e39b58f0e4f8d0bc0949d19605123d5
Author: jessehuang <jesse17huang@gmail.com>
Date:   Mon Oct 19 06:14:46 2020 -0500

    ok

commit 0e69e39e8d4743b9ac1c30a0fd6bea9b10ae02f5
Author: jessehuang <jesse17huang@gmail.com>
Date:   Mon Oct 19 04:25:01 2020 -0500

    allocate haha

commit 762c8c51b58947c93971476568b153edd966a007
Author: jessehuang <jesse17huang@gmail.com>
Date:   Sun Oct 18 20:31:29 2020 -0500

    syntax fixed

commit 1557786c7c7b619bbeba92f44dd1591cba387fa4
Author: Nathan Gates <nathangates117@gmail.com>
Date:   Sun Oct 18 18:58:36 2020 -0500

    Pushing the first iteration of our allocate method.

commit d1b7e39079d123519045005a0d2ab9fd4ac04b5a
Author: Nathan Gates <nathangates117@gmail.com>
Date:   Sun Oct 18 17:23:24 2020 -0500

    Fixed the provided test cases. Closes #7

commit c51e45b9cb45f3ad7421c09f391264c60fd38dbd
Author: Nathan Gates <nathangates117@gmail.com>
Date:   Sun Oct 18 17:09:02 2020 -0500

    More pipeline fixes

commit 81dfde5fc1ec963d9b857bda5e552b2363d8ca0d
Author: Nathan Gates <nathangates117@gmail.com>
Date:   Sun Oct 18 17:02:12 2020 -0500

    again fixing pipeline issues.

commit d61175bf254ad0904b52fab38ea992417cdb57cd
Author: Nathan Gates <nathangates117@gmail.com>
Date:   Sun Oct 18 16:51:51 2020 -0500

    Attempting to fix more error messages with constructor, syntax, etc.

commit cc8e27aed6dcc3c7f7552f7275f795c491657628
Author: Nathan Gates <nathangates117@gmail.com>
Date:   Sun Oct 18 16:42:30 2020 -0500

    After reviewing piazza, figured out how to give the number of objects we want - @142

commit d3e454147e8f2c2baae618cf159c6a3e8a3353b0
Author: Nathan Gates <nathangates117@gmail.com>
Date:   Sun Oct 18 16:25:57 2020 -0500

    Another attempt to fix pipeline. Passing in appropriate value to constructor for const_iterator.

commit 3691c9c4e19da1e48e98e03e2f31735175325577
Author: Nathan Gates <nathangates117@gmail.com>
Date:   Sun Oct 18 16:22:32 2020 -0500

    Attempted fix of issues that broke pipeline. Fixing an & operator, constructor of my_allocator().

commit 22444db857f3209c3fa6ae3c4266653ffdcb5a7c
Author: Nathan Gates <nathangates117@gmail.com>
Date:   Sun Oct 18 16:11:46 2020 -0500

    Implemented the helper method that determines whether allocation is possible - needs to be handled. Closes #6

commit 3174e949b67dc9cd74aeac4b60e8e922ff03bc03
Author: Nathan Gates <nathangates117@gmail.com>
Date:   Sun Oct 18 15:57:12 2020 -0500

    Updated iterators to point at sentinels. Closes #5

commit 43708cd1220a98c16d62d7fb74b7ca763494815b
Author: jessehuang <jesse17huang@gmail.com>
Date:   Sat Oct 17 01:05:59 2020 -0500

    tentative iterators and pseudocode rest

commit 86406339b0751d20b50de8dba3ea66f9142e0115
Author: Nathan Gates <nathangates117@gmail.com>
Date:   Fri Oct 16 14:33:02 2020 -0500

    Forked the public repo, invited collaborators and gradors, cloned the repo. Closes #1

commit c29523546c9db4030b7efdef88a3cc121ec0a457
Author: Glenn Downing <downing@cs.utexas.edu>
Date:   Sun Oct 4 10:31:40 2020 -0500

    another commit

commit 854b16e135ab79edfef10818b503c6c367bce039
Author: Glenn Downing <downing@cs.utexas.edu>
Date:   Sun Oct 4 10:31:11 2020 -0500

    another commit

commit 67216036d47da9d0731698aa2e81d5008a28042c
Author: Glenn Downing <downing@cs.utexas.edu>
Date:   Tue Sep 29 17:01:33 2020 -0500

    another commit

commit a33e9aa5962600b096255283446572ef9cee05a8
Author: Glenn Downing <downing@cs.utexas.edu>
Date:   Tue Sep 29 14:59:56 2020 -0500

    another commit

commit e10a2d350cda548d3483b0314d7ea1f6fd337633
Author: Glenn Downing <downing@cs.utexas.edu>
Date:   Tue Sep 29 14:55:37 2020 -0500

    another commit

commit 6cc8a404847421dced958ed1de5ef5cf6dcbd0d7
Author: Glenn Downing <downing@cs.utexas.edu>
Date:   Tue Sep 29 14:54:58 2020 -0500

    first commit
